%YAML 1.1
%TAG !u! tag:unity3d.com,2011:
--- !u!1 &8395015530900354690
GameObject:
  m_ObjectHideFlags: 0
  m_CorrespondingSourceObject: {fileID: 0}
  m_PrefabInstance: {fileID: 0}
  m_PrefabAsset: {fileID: 0}
  serializedVersion: 6
  m_Component:
  - component: {fileID: 8395015530900354691}
  - component: {fileID: 8395015530900354700}
  - component: {fileID: 8395015530900354701}
  m_Layer: 0
  m_Name: PowerUpDouble
  m_TagString: Untagged
  m_Icon: {fileID: 0}
  m_NavMeshLayer: 0
  m_StaticEditorFlags: 0
  m_IsActive: 1
--- !u!4 &8395015530900354691
Transform:
  m_ObjectHideFlags: 0
  m_CorrespondingSourceObject: {fileID: 0}
  m_PrefabInstance: {fileID: 0}
  m_PrefabAsset: {fileID: 0}
  m_GameObject: {fileID: 8395015530900354690}
  m_LocalRotation: {x: -0, y: -0, z: -0, w: 1}
  m_LocalPosition: {x: 0, y: 0, z: 0}
  m_LocalScale: {x: 1, y: 1, z: 1}
  m_Children:
  - {fileID: 8289912334360139599}
  m_Father: {fileID: 0}
  m_RootOrder: 0
  m_LocalEulerAnglesHint: {x: 0, y: 0, z: 0}
--- !u!65 &8395015530900354700
BoxCollider:
  m_ObjectHideFlags: 0
  m_CorrespondingSourceObject: {fileID: 0}
  m_PrefabInstance: {fileID: 0}
  m_PrefabAsset: {fileID: 0}
  m_GameObject: {fileID: 8395015530900354690}
  m_Material: {fileID: 0}
  m_IsTrigger: 1
  m_Enabled: 1
  serializedVersion: 2
  m_Size: {x: 1.27, y: 0.88, z: 1}
  m_Center: {x: 0, y: 0.33, z: 0}
--- !u!114 &8395015530900354701
MonoBehaviour:
  m_ObjectHideFlags: 0
  m_CorrespondingSourceObject: {fileID: 0}
  m_PrefabInstance: {fileID: 0}
  m_PrefabAsset: {fileID: 0}
  m_GameObject: {fileID: 8395015530900354690}
  m_Enabled: 1
  m_EditorHideFlags: 0
  m_Script: {fileID: 11500000, guid: 91536cf15d96fc2479464c5f046aaa0e, type: 3}
  m_Name: 
  m_EditorClassIdentifier: 
  explosionPrefab: {fileID: 6316233644369611820, guid: d089bdf6ff8581f47ace99e32b9ed8df, type: 3}
  type: 0
--- !u!1001 &8395015532223869092
PrefabInstance:
  m_ObjectHideFlags: 0
  serializedVersion: 2
  m_Modification:
    m_TransformParent: {fileID: 8395015530900354691}
    m_Modifications:
    - target: {fileID: -8679921383154817045, guid: 9625a4dc207827c4aa120079c6d2f792, type: 3}
      propertyPath: m_RootOrder
      value: 0
      objectReference: {fileID: 0}
    - target: {fileID: -8679921383154817045, guid: 9625a4dc207827c4aa120079c6d2f792, type: 3}
      propertyPath: m_LocalScale.x
      value: 2
      objectReference: {fileID: 0}
    - target: {fileID: -8679921383154817045, guid: 9625a4dc207827c4aa120079c6d2f792, type: 3}
      propertyPath: m_LocalScale.y
      value: 2
      objectReference: {fileID: 0}
    - target: {fileID: -8679921383154817045, guid: 9625a4dc207827c4aa120079c6d2f792, type: 3}
      propertyPath: m_LocalScale.z
      value: 2
      objectReference: {fileID: 0}
    - target: {fileID: -8679921383154817045, guid: 9625a4dc207827c4aa120079c6d2f792, type: 3}
      propertyPath: m_LocalPosition.x
      value: 0
      objectReference: {fileID: 0}
    - target: {fileID: -8679921383154817045, guid: 9625a4dc207827c4aa120079c6d2f792, type: 3}
      propertyPath: m_LocalPosition.y
      value: 0
      objectReference: {fileID: 0}
    - target: {fileID: -8679921383154817045, guid: 9625a4dc207827c4aa120079c6d2f792, type: 3}
      propertyPath: m_LocalPosition.z
      value: 0
      objectReference: {fileID: 0}
    - target: {fileID: -8679921383154817045, guid: 9625a4dc207827c4aa120079c6d2f792, type: 3}
      propertyPath: m_LocalRotation.w
      value: 0.7071068
      objectReference: {fileID: 0}
    - target: {fileID: -8679921383154817045, guid: 9625a4dc207827c4aa120079c6d2f792, type: 3}
      propertyPath: m_LocalRotation.x
      value: 0
      objectReference: {fileID: 0}
    - target: {fileID: -8679921383154817045, guid: 9625a4dc207827c4aa120079c6d2f792, type: 3}
      propertyPath: m_LocalRotation.y
      value: 0.7071068
      objectReference: {fileID: 0}
    - target: {fileID: -8679921383154817045, guid: 9625a4dc207827c4aa120079c6d2f792, type: 3}
      propertyPath: m_LocalRotation.z
      value: 0
      objectReference: {fileID: 0}
    - target: {fileID: -8679921383154817045, guid: 9625a4dc207827c4aa120079c6d2f792, type: 3}
      propertyPath: m_LocalEulerAnglesHint.x
      value: 0
      objectReference: {fileID: 0}
    - target: {fileID: -8679921383154817045, guid: 9625a4dc207827c4aa120079c6d2f792, type: 3}
      propertyPath: m_LocalEulerAnglesHint.y
      value: 90
      objectReference: {fileID: 0}
    - target: {fileID: -8679921383154817045, guid: 9625a4dc207827c4aa120079c6d2f792, type: 3}
      propertyPath: m_LocalEulerAnglesHint.z
      value: 0
      objectReference: {fileID: 0}
    - target: {fileID: -7511558181221131132, guid: 9625a4dc207827c4aa120079c6d2f792, type: 3}
      propertyPath: m_Materials.Array.data[0]
      value: 
      objectReference: {fileID: 2100000, guid: ee49a6c57273fa2438460a1d2eae3349, type: 2}
    - target: {fileID: -7511558181221131132, guid: 9625a4dc207827c4aa120079c6d2f792, type: 3}
      propertyPath: m_Materials.Array.data[1]
      value: 
      objectReference: {fileID: 2100000, guid: ee49a6c57273fa2438460a1d2eae3349, type: 2}
    - target: {fileID: -7511558181221131132, guid: 9625a4dc207827c4aa120079c6d2f792, type: 3}
      propertyPath: m_Materials.Array.data[2]
      value: 
      objectReference: {fileID: 2100000, guid: 5dfd4fa16b0dcb544943999ce306b0c3, type: 2}
    - target: {fileID: -5412136878681553974, guid: 9625a4dc207827c4aa120079c6d2f792, type: 3}
      propertyPath: m_Materials.Array.data[0]
      value: 
      objectReference: {fileID: 2100000, guid: 70e8cc643f99d264d910c87ce0af8cfe, type: 2}
    - target: {fileID: -5169677972427226811, guid: 9625a4dc207827c4aa120079c6d2f792, type: 3}
      propertyPath: m_Materials.Array.data[0]
      value: 
      objectReference: {fileID: 2100000, guid: 70e8cc643f99d264d910c87ce0af8cfe, type: 2}
    - target: {fileID: -1922876027896310315, guid: 9625a4dc207827c4aa120079c6d2f792, type: 3}
      propertyPath: m_Materials.Array.data[0]
      value: 
      objectReference: {fileID: 2100000, guid: 70e8cc643f99d264d910c87ce0af8cfe, type: 2}
    - target: {fileID: 919132149155446097, guid: 9625a4dc207827c4aa120079c6d2f792, type: 3}
      propertyPath: m_Name
      value: barrels_rail
      objectReference: {fileID: 0}
    - target: {fileID: 3359864839747288243, guid: 9625a4dc207827c4aa120079c6d2f792, type: 3}
      propertyPath: m_Materials.Array.data[0]
      value: 
      objectReference: {fileID: 2100000, guid: 70e8cc643f99d264d910c87ce0af8cfe, type: 2}
    m_RemovedComponents: []
  m_SourcePrefab: {fileID: 100100000, guid: 9625a4dc207827c4aa120079c6d2f792, type: 3}
--- !u!4 &8289912334360139599 stripped
Transform:
  m_CorrespondingSourceObject: {fileID: -8679921383154817045, guid: 9625a4dc207827c4aa120079c6d2f792, type: 3}
  m_PrefabInstance: {fileID: 8395015532223869092}
  m_PrefabAsset: {fileID: 0}
